1주차 패키지과제
…
#5 자료형으로
blue$confirmed_date <- as.Date(blue$confirmed_date)

#6 날짜별로 그룹화, mutate함수로 파생변수 만들기
blue<-blue %>% group_by(confirmed_date) %>% mutate(confirmed_number=n())

#7
blue$weekday<-weekdays(blue$confirmed_date) #요일 추가
blue$wday<-ifelse(blue$weekday %in% c('토요일', '일요일'), '주말', '주중') 
blue %>%  mutate(wday) #주중/주말  추가

## # A tibble: 3,653 x 10
## # Groups:   confirmed_date [142]
##    patient_id sex   age   province city  confirmed_date state confirmed_number
##       <int64> <chr> <chr> <chr>    <chr> <date>         <chr>            <int>
##  1 1000000001 male  50s   서울특별시~ 강서구~ 2020-01-23     rele~                1
##  2 1000000002 male  30s   서울특별시~ 중랑구~ 2020-01-30     rele~                4
##  3 1000000003 male  50s   서울특별시~ 종로구~ 2020-01-30     rele~                4
##  4 1000000004 male  20s   서울특별시~ 마포구~ 2020-01-30     rele~                4
##  5 1000000005 fema~ 20s   서울특별시~ 성북구~ 2020-01-31     rele~                3
##  6 1000000006 fema~ 50s   서울특별시~ 종로구~ 2020-01-31     rele~                3
##  7 1000000007 male  20s   서울특별시~ 종로구~ 2020-01-31     rele~                3
##  8 1000000008 male  20s   서울특별시~ 기타  2020-02-02     rele~                2
##  9 1000000009 male  30s   서울특별시~ 송파구~ 2020-02-05     rele~                4
## 10 1000000010 fema~ 60s   서울특별시~ 성북구~ 2020-02-05     rele~                4
## # ... with 3,643 more rows, and 2 more variables: weekday <chr>, wday <chr>
…
